static const ASM_MAPPING _asxxxx_gb_mapping[] = {
    /* We want to prepend the _ */
    { "area", ".area _%s" },
    { "areacode", ".area _%s" },
    { "areadata", ".area _%s" },
    { "areahome", ".area _%s" },
    { "functionlabeldef", "%s:" },
    { "*hl", "(hl)" },
    { "di", "di" },
    { "ei", "ei" },
    /*{ "ldahli", "ldi\ta,(hl)" }, use when assembler update is complete*/
    {"ldahli", "ld\ta,(hl)\ninc\thl"},
    { "ldahlsp", "ldhl\tsp,#%d" },
    { "ldaspsp", "add sp, #%d" },
    { "*pair", "(%s)" },
    { "enter", "" },
    { "enterx", 
      "add sp, #-%d" },
    { "pusha", 
      "push af\n"
      "push bc\n"
      "push de\n"
      "push hl"
    },
    { "popa", 
      "pop hl\n"
      "pop de\n"
      "pop bc\n"
      "pop af"
    },
    { "adjustsp", "lda sp,-%d(sp)" },
    { "fileprelude", "" },
    { "profileenter",
                "ld a,#3\n"
                "rst\t0x08"
    },
    { "profileexit",
                "ld a,#4\n"
                "rst\t0x08"
    },
    { NULL, NULL }
};

static const ASM_MAPPING _asxxxx_z80_mapping[] = {
    /* We want to prepend the _ */
    { "area", ".area _%s" },
    { "areacode", ".area _%s" },
    { "areadata", ".area _%s" },
    { "areahome", ".area _%s" },
    { "*ixx", "(ix + %d)" },
    { "*iyx", "(iy + %d)" },
    { "*hl", "(hl)" },
    { "di", "di" },
    { "ei", "ei" },
    { "ldahli", 
		"ld a,(hl)\n"
		"inc\thl" },
    { "ldahlsp", 
		"ld hl,#%d\n"
		"add\thl,sp" },
    { "ldaspsp", 
		"ld iy,#%d\n"
		"add\tiy,sp\n"
		"ld\tsp,iy" },
    { "*pair", "(%s)" },
    { "enter", 
		"push\tix\n"
		"ld\tix,#0\n"
		"add\tix,sp" },
    { "pusha", 
      		"push af\n"
      		"push\tbc\n"
      		"push\tde\n"
      		"push\thl\n"
		"push\tiy"
    },
    { "popa",
		"pop iy\n"
		"pop\thl\n"
		"pop\tde\n"
		"pop\tbc\n"
		"pop\taf"
    },
    { "adjustsp", "lda sp,-%d(sp)" },
    { "profileenter",
                "ld a,#3\n"
                "rst\t0x08"
    },
    { "profileexit",
                "ld a,#4\n"
                "rst\t0x08"
    },
    { NULL, NULL }
};

static const ASM_MAPPING _asxxxx_r2k_mapping[] = {
    /* We want to prepend the _ */
    { "area", ".area _%s" },
    { "areacode", ".area _%s" },
    { "areadata", ".area _%s" },
    { "areahome", ".area _%s" },
    { "*ixx", "(ix + %d)" },
    { "*iyx", "(iy + %d)" },
    { "*hl", "(hl)" },
    { "di", "ipset3" },
    { "ei", "ipres" },
    { "ldahli", 
		"ld a,(hl)\n"
		"inc\thl" },
    { "ldahlsp", 
		"ld hl,#%d\n"
		"add\thl,sp" },
    { "ldaspsp", 
		"ld iy,#%d\n"
		"add\tiy,sp\n"
		"ld\tsp,iy" },
    { "*pair", "(%s)" },
    { "enter", 
		"push\tix\n"
		"ld\tix,#0\n"
		"add\tix,sp" },
    { "pusha", 
      		"push af\n"
      		"push\tbc\n"
      		"push\tde\n"
      		"push\thl\n"
		"push\tiy"
    },
    { "popa",
		"pop iy\n"
		"pop\thl\n"
		"pop\tde\n"
		"pop\tbc\n"
		"pop\taf"
    },
    { "adjustsp", "lda sp,-%d(sp)" },
    { "profileenter",
                "ld a,#3\n"
                "rst\t0x28"
    },
    { "profileexit",
                "ld a,#4\n"
                "rst\t0x28"
    },
    { NULL, NULL }
};

static const ASM_MAPPING _rgbds_mapping[] = {
    { "global", "GLOBAL %s" },
    { "extern", "GLOBAL %s" },
    { "slabeldef", "%s:" },
    { "labeldef", "%s:" },
    { "tlabeldef", ".l%05d:" },
    { "tlabel", ".l%05d" },
    { "fileprelude", 
      "; Generated using the rgbds tokens.\n"
      "\t; We have to define these here as sdcc doesn't make them global by default\n"
      "\tGLOBAL __mulschar\n"
      "\tGLOBAL __muluchar\n"
      "\tGLOBAL __mulint\n"
      "\tGLOBAL __divschar\n"
      "\tGLOBAL __divuchar\n"
      "\tGLOBAL __divsint\n"
      "\tGLOBAL __divuint\n"
      "\tGLOBAL __modschar\n"
      "\tGLOBAL __moduchar\n"
      "\tGLOBAL __modsint\n"
      "\tGLOBAL __moduint\n"
      "\tGLOBAL __mullong\n"  
      "\tGLOBAL __modslong\n"  
      "\tGLOBAL __divslong\n"  
      "\tGLOBAL banked_call\n"
      "\tGLOBAL banked_ret\n"
    },
    { "functionheader", 
      "; ---------------------------------\n"
      "; Function %s\n"
      "; ---------------------------------"
    },
    { "functionlabeldef", "%s:" },
    { "zero", "$00" },
    { "one", "$01" },
    { "area", "SECTION \"%s\",CODE" },
    { "areadata", "SECTION \"%F_%s\",BSS" },
    { "areacode", "SECTION \"%F_CODE\",%s" }, 
    { "areahome", "SECTION \"%F_CODE\",%s" },
    { "ascii", "DB \"%s\"" },
    { "ds", "DS %d" },
    { "db", "DB" },
    { "dbs", "DB %s" },
    { "dw", "DW" },
    { "dws", "DW %s" },
    { "immed", "" },
    { "constbyte", "$%02X" },
    { "constword", "$%04X" },
    { "immedword", "$%04X" },
    { "immedbyte", "$%02X" },
    { "hashedstr", "%s" },
    { "lsbimmeds", "%s & $FF" },
    { "msbimmeds", "%s >> 8" },
    { "bankimmeds", "BANK(%s)" },
    { "module", "; MODULE %s" },
    { NULL, NULL }
};

static const ASM_MAPPING _rgbds_gb_mapping[] = {
    { "pusha", 
      "push af\n"
      "\tpush bc\n"
      "\tpush de\n"
      "\tpush hl"
    },
    { "popa", 
      "pop hl\n"
      "\tpop de\n"
      "\tpop bc\n"
      "\tpop af"
    },
    { "di", "di" },
    { "ei", "ei" },
    { "adjustsp", "add sp,-%d" },
    { "enter", "" },
    { "ldahli", "ld a,[hl+]" },
    { "*hl", "[hl]" },
    { "ldahlsp", "ld hl,[sp+%d]" },
    { "ldaspsp", "add sp,%d" },
    { "*pair", "[%s]" },
    { NULL, NULL }
};

static const ASM_MAPPING _isas_mapping[] = {
    { "global", "GLOBAL %s" },
    { "extern", "GLOBAL %s" },
    { "slabeldef", "%s:" },
    { "labeldef", "%s:" },
    { "tlabeldef", "?l%05d:" },
    { "tlabel", "?l%05d" },
    { "fileprelude", 
      ";Generated using the isas tokens.\n"
      "\tLPREFIX '?'  ; Treat labels starting with ? as local.\n"
      "\tONCNUM       ; Numbers are hex\n"
      "\tCAPSOFF      ; Case sensitive\n"
      "\tISDMG        ; Gameboy mode\n"
      "_CODE\tGROUP\n"
      "\t; We have to define these here as sdcc doesnt make them global by default\n"
      "\tGLOBAL __mulschar\n"
      "\tGLOBAL __muluchar\n"
      "\tGLOBAL __mulint\n"
      "\tGLOBAL __divschar\n"
      "\tGLOBAL __divuchar\n"
      "\tGLOBAL __divsint\n"
      "\tGLOBAL __divuint\n"
      "\tGLOBAL __modschar\n"
      "\tGLOBAL __moduchar\n"
      "\tGLOBAL __modsint\n"
      "\tGLOBAL __moduint\n"
      "\tGLOBAL banked_call\n"
      "\tGLOBAL banked_ret\n"
    },
    { "functionheader", 
      "; ---------------------------------\n"
      "; Function %s\n"
      "; ---------------------------------"
    },
    { "functionlabeldef", "%s:" },
    { "zero", "$00" },
    { "one", "$01" },
    { "area", "%s\tGROUP" },
    { "areacode", "_CODE\tGROUP" },
    { "areadata", "_DATA\tGROUP" },
    { "areahome", "_CODE\tGROUP" },
    { "ascii", "DB \"%s\"" },
    { "ds", "DS %d" },
    { "db", "DB" },
    { "dbs", "DB %s" },
    { "dw", "DW" },
    { "dws", "DW %s" },
    { "immed", "" },
    { "constbyte", "0x%02X" },
    { "constword", "0x%04X" },
    { "immedword", "0x%04X" },
    { "immedbyte", "0x%02X" },
    { "hashedstr", "%s" },
    { "lsbimmeds", "%s & 0xFF" },
    { "msbimmeds", "%s >> 8" },
    { "bankimmeds", "!%s" },
    { "module", "; MODULE %s" },
    { NULL, NULL }
};

static const ASM_MAPPING _isas_gb_mapping[] = {
    { "pusha", 
      "push af\n"
      "push bc\n"
      "push de\n"
      "push hl"
    },
    { "popa", 
      "pop hl\n"
      "pop de\n"
      "pop bc\n"
      "pop af"
    },
    { "di", "di" },
    { "ei", "ei" },
    { "adjustsp", "add sp,-%d" },
    { "enter", "" },
    { "ldahli", "ld a,(hli)" },
    { "*hl", "(hl)" },
    { "ldahlsp", "ldhl sp,%d" },
    { "ldaspsp", "add sp,%d" },
    { "*pair", "(%s)" },
    { NULL, NULL }
};

static const ASM_MAPPING _z80asm_mapping[] = {
    { "global", "XDEF %s" },
    { "extern", "XREF %s" },
    { "slabeldef", "\n.%s" },
    { "labeldef", "\n.%s" },
    { "tlabeldef", "\n.l%N%05d" },
    { "tlabel", "l%N%05d" },
    { "fileprelude", 
        "; Generated using the z80asm/z88 tokens.\n"
        "\tXREF __muluchar_rrx_s\n"
        "\tXREF __mulschar_rrx_s\n"
        "\tXREF __mulint_rrx_s\n"
        "\tXREF __mullong_rrx_s\n"
        "\tXREF __divuchar_rrx_s\n"
        "\tXREF __divschar_rrx_s\n"
        "\tXREF __divsint_rrx_s\n"
        "\tXREF __divuint_rrx_s\n"
        "\tXREF __divulong_rrx_s\n"
        "\tXREF __divslong_rrx_s\n"
        "\tXREF __rrulong_rrx_s\n"
        "\tXREF __rrslong_rrx_s\n"
        "\tXREF __rlulong_rrx_s\n"
        "\tXREF __rlslong_rrx_s\n"
    },
    { "functionheader", 
      "; ---------------------------------\n"
      "; Function %s\n"
      "; ---------------------------------"
    },
    { "functionlabeldef", ".%s" },
    { "zero", "$00" },
    { "one", "$01" },
    { "ascii", "DEFM \"%s\"" },
    { "ds", "DEFS %d" },
    { "db", "DEFB" },
    { "dbs", "DEFB %s" },
    { "dw", "DEFW" },
    { "dws", "DEFB %s" },
    { "immed", "" },
    { "constbyte", "$%02X" },
    { "constword", "$%04X" },
    { "immedword", "$%04X" },
    { "immedbyte", "$%02X" },
    { "hashedstr", "%s" },
    { "lsbimmeds", "%s ~ $FF" },
    { "msbimmeds", "%s / 256" },

    { "bankimmeds", "BANK(%s)" },
    { "module", "MODULE %s" },
    { "area", "; Area  %s" },
    { "areadata", "; Aread BSS" },
    { "areacode", "; Area CODE" }, 
    { "areahome", "; Area HOME" },
    { NULL, NULL }
};

static const ASM_MAPPING _z80asm_z80_mapping[] = {
    { "*ixx", "(ix%+d)" },
    { "*iyx", "(iy%+d)" },
    { "*hl", "(hl)" },
    { "di", "di" },
    { "ei", "ei" },
    { "ldahli", 
		"ld a,(hl)\n"
		"inc\thl" },
    { "ldahlsp", 
		"ld hl,%d\n"
		"add\thl,sp" },
    { "ldaspsp", 
		"ld iy,%d\n"
		"add\tiy,sp\n"
		"ld\tsp,iy" },
    { "*pair", "(%s)" },
    { "enter", 
		"push\tix\n"
		"ld\tix,0\n"
		"add\tix,sp" },
    { "pusha", 
      		"push af\n"
      		"push\tbc\n"
      		"push\tde\n"
      		"push\thl\n"
		"push\tiy"
    },
    { "popa", 
		"pop\tiy\n"
		"pop\thl\n"
		"pop\tde\n"
		"pop\tbc\n"
		"pop\taf"
    },
    { "adjustsp", "lda sp,(sp%+d)" },
    { "profileenter",
                "ld a,3\n"
                "rst\t$08"
    },
    { "profileexit",
                "ld a,4\n"
                "rst\t$08"
    },
    { NULL, NULL }
};

static const ASM_MAPPINGS _isas = {
    NULL,
    _isas_mapping
};

const ASM_MAPPINGS _isas_gb = {
    &_isas,
    _isas_gb_mapping
};

static const ASM_MAPPINGS _rgbds = {
    NULL,
    _rgbds_mapping
};

const ASM_MAPPINGS _rgbds_gb = {
    &_rgbds,
    _rgbds_gb_mapping
};

const ASM_MAPPINGS _asxxxx_gb = {
    &asm_asxxxx_mapping,
    _asxxxx_gb_mapping
};

const ASM_MAPPINGS _asxxxx_z80 = {
    &asm_asxxxx_mapping,
    _asxxxx_z80_mapping
};

static const ASM_MAPPINGS _z80asm = {
    NULL,
    _z80asm_mapping
};

const ASM_MAPPINGS _z80asm_z80 = {
    &_z80asm,
    _z80asm_z80_mapping
};

const ASM_MAPPINGS _asxxxx_r2k = {
    &asm_asxxxx_mapping,
    _asxxxx_r2k_mapping
};
